<?xml version="1.0" encoding="UTF-8"?>
<session version="1.0">
<refactoring accessors="true" comment="Delete element from project &apos;Play Sample&apos;&#x0A;- Original project: &apos;Play Sample&apos;&#x0A;- Original element: &apos;Play Sample/src/app&apos;" description="Delete element" element1="/src&lt;app" elements="1" flags="589830" id="org.eclipse.jdt.ui.delete" resources="0" stamp="1372053164779" subPackages="false" version="1.0"/>
</session>