<?xml version="1.0" encoding="UTF-8"?>
<session version="1.0">
<refactoring comment="Delete resource &apos;openbravo&apos;" deleteContents="false" description="Delete resource &apos;openbravo&apos;" element1="/openbravo" flags="7" id="org.eclipse.ltk.core.refactoring.delete.resources" resources="1" stamp="1382537909650"/>
</session>