<?xml version="1.0" encoding="UTF-8"?>
<session version="1.0">
<refactoring accessors="true" comment="Delete element from project &apos;Library&apos;&#x0A;- Original project: &apos;Library&apos;&#x0A;- Original element: &apos;Library/app/views.controll&apos;" description="Delete element" element1="/app&lt;views.controll" elements="1" flags="589830" id="org.eclipse.jdt.ui.delete" resources="0" stamp="1382102225403" subPackages="false" version="1.0"/>
</session>